{
    "swagger": "2.0",
    "info": {
        "version": "v1",
        "title": "API"
    },
    "paths": {
        "/api/Product": {
            "get": {
                "tags": [
                    "Product"
                ],
                "operationId": "Get",
                "consumes": [],
                "produces": [],
                "parameters": [
                    {
                        "name": "keyword",
                        "in": "query",
                        "required": false,
                        "type": "string",
                        "default": ""
                    }
                ],
                "responses": {
                    "200": {
                        "description": "Success"
                    }
                }
            }
        },
        "/api/Product/getProductByCategory": {
            "get": {
                "tags": [
                    "Product"
                ],
                "operationId": "getProductByCategory",
                "consumes": [],
                "produces": [],
                "parameters": [
                    {
                        "name": "categoryId",
                        "in": "query",
                        "required": false,
                        "type": "string",
                        "default": ""
                    }
                ],
                "responses": {
                    "200": {
                        "description": "Success"
                    }
                }
            }
        },
        "/api/Product/getProductByFeature": {
            "get": {
                "tags": [
                    "Product"
                ],
                "operationId": "getProductByFeature",
                "consumes": [],
                "produces": [],
                "parameters": [
                    {
                        "name": "feature",
                        "in": "query",
                        "required": false,
                        "type": "string",
                        "default": ""
                    }
                ],
                "responses": {
                    "200": {
                        "description": "Success"
                    }
                }
            }
        },
        "/api/Product/getAllCategory": {
            "get": {
                "tags": [
                    "Product"
                ],
                "operationId": "getAllCategory",
                "consumes": [],
                "produces": [],
                "parameters": [
                    {
                        "name": "keyword",
                        "in": "query",
                        "required": false,
                        "type": "string",
                        "default": ""
                    }
                ],
                "responses": {
                    "200": {
                        "description": "Success"
                    }
                }
            }
        },
        "/api/Product/getpaging": {
            "get": {
                "tags": [
                    "Product"
                ],
                "operationId": "GetPaging",
                "consumes": [],
                "produces": [],
                "parameters": [
                    {
                        "name": "pageIndex",
                        "in": "query",
                        "required": false,
                        "type": "integer",
                        "format": "int32",
                        "default": 1
                    },
                    {
                        "name": "pageSize",
                        "in": "query",
                        "required": false,
                        "type": "integer",
                        "format": "int32",
                        "default": 10
                    },
                    {
                        "name": "keywords",
                        "in": "query",
                        "required": false,
                        "type": "string",
                        "default": ""
                    }
                ],
                "responses": {
                    "200": {
                        "description": "Success"
                    }
                }
            }
        },
        "/api/Product/getbyid": {
            "get": {
                "tags": [
                    "Product"
                ],
                "operationId": "GetById",
                "consumes": [],
                "produces": [],
                "parameters": [
                    {
                        "name": "id",
                        "in": "query",
                        "required": false,
                        "type": "integer",
                        "format": "int32"
                    }
                ],
                "responses": {
                    "200": {
                        "description": "Success"
                    }
                }
            }
        },
        "/api/Product/getAllStore": {
            "get": {
                "tags": [
                    "Product"
                ],
                "operationId": "getAllStore",
                "consumes": [],
                "produces": [],
                "parameters": [
                    {
                        "name": "keyword",
                        "in": "query",
                        "required": false,
                        "type": "string",
                        "default": ""
                    }
                ],
                "responses": {
                    "200": {
                        "description": "Success"
                    }
                }
            }
        },
        "/api/Users/signup": {
            "post": {
                "tags": [
                    "Users"
                ],
                "operationId": "SignUp",
                "consumes": [
                    "application/json-patch+json",
                    "application/json",
                    "text/json",
                    "application/*+json"
                ],
                "produces": [],
                "parameters": [
                    {
                        "name": "model",
                        "in": "body",
                        "required": false,
                        "schema": {
                            "$ref": "#/definitions/InfoUser"
                        }
                    }
                ],
                "responses": {
                    "200": {
                        "description": "Success"
                    }
                }
            }
        },
        "/api/Users/signin": {
            "post": {
                "tags": [
                    "Users"
                ],
                "operationId": "Signin",
                "consumes": [
                    "application/json-patch+json",
                    "application/json",
                    "text/json",
                    "application/*+json"
                ],
                "produces": [],
                "parameters": [
                    {
                        "name": "model",
                        "in": "body",
                        "required": false,
                        "schema": {
                            "$ref": "#/definitions/UserLogin"
                        }
                    }
                ],
                "responses": {
                    "200": {
                        "description": "Success"
                    }
                }
            }
        },
        "/api/Users/facebooklogin": {
            "post": {
                "tags": [
                    "Users"
                ],
                "operationId": "FacebookLogin",
                "consumes": [
                    "application/json-patch+json",
                    "application/json",
                    "text/json",
                    "application/*+json"
                ],
                "produces": [],
                "parameters": [
                    {
                        "name": "model",
                        "in": "body",
                        "required": false,
                        "schema": {
                            "$ref": "#/definitions/DangNhapFacebookViewModel"
                        }
                    }
                ],
                "responses": {
                    "200": {
                        "description": "Success"
                    }
                }
            }
        },
        "/api/Users/getProfile": {
            "post": {
                "tags": [
                    "Users"
                ],
                "operationId": "getProfile",
                "consumes": [],
                "produces": [],
                "parameters": [
                    {
                        "name": "Authorization",
                        "in": "header",
                        "description": "Nhập vào Bearer [token]",
                        "required": true,
                        "type": "string"
                    }
                ],
                "responses": {
                    "200": {
                        "description": "Success"
                    }
                }
            }
        },
        "/api/Users/updateProfile": {
            "post": {
                "tags": [
                    "Users"
                ],
                "operationId": "updateProfile",
                "consumes": [
                    "application/json-patch+json",
                    "application/json",
                    "text/json",
                    "application/*+json"
                ],
                "produces": [],
                "parameters": [
                    {
                        "name": "model",
                        "in": "body",
                        "required": false,
                        "schema": {
                            "$ref": "#/definitions/InfoUser"
                        }
                    },
                    {
                        "name": "Authorization",
                        "in": "header",
                        "description": "Nhập vào Bearer [token]",
                        "required": true,
                        "type": "string"
                    }
                ],
                "responses": {
                    "200": {
                        "description": "Success"
                    }
                }
            }
        },
        "/api/Users/changePassword": {
            "post": {
                "tags": [
                    "Users"
                ],
                "operationId": "changePassword",
                "consumes": [
                    "application/json-patch+json",
                    "application/json",
                    "text/json",
                    "application/*+json"
                ],
                "produces": [],
                "parameters": [
                    {
                        "name": "model",
                        "in": "body",
                        "required": false,
                        "schema": {
                            "$ref": "#/definitions/UserNewPassword"
                        }
                    },
                    {
                        "name": "Authorization",
                        "in": "header",
                        "description": "Nhập vào Bearer [token]",
                        "required": true,
                        "type": "string"
                    }
                ],
                "responses": {
                    "200": {
                        "description": "Success"
                    }
                }
            }
        },
        "/api/Users/deleteOrder": {
            "post": {
                "tags": [
                    "Users"
                ],
                "operationId": "deleteOrder",
                "consumes": [
                    "application/json-patch+json",
                    "application/json",
                    "text/json",
                    "application/*+json"
                ],
                "produces": [],
                "parameters": [
                    {
                        "name": "orderDestroy",
                        "in": "body",
                        "required": false,
                        "schema": {
                            "$ref": "#/definitions/OrderDestroy"
                        }
                    },
                    {
                        "name": "Authorization",
                        "in": "header",
                        "description": "Nhập vào Bearer [token]",
                        "required": true,
                        "type": "string"
                    }
                ],
                "responses": {
                    "200": {
                        "description": "Success"
                    }
                }
            }
        },
        "/api/Users/OrderApproval": {
            "post": {
                "tags": [
                    "Users"
                ],
                "operationId": "orderApproval",
                "consumes": [
                    "application/json-patch+json",
                    "application/json",
                    "text/json",
                    "application/*+json"
                ],
                "produces": [],
                "parameters": [
                    {
                        "name": "orderApproval",
                        "in": "body",
                        "required": false,
                        "schema": {
                            "$ref": "#/definitions/OrderDestroy"
                        }
                    },
                    {
                        "name": "Authorization",
                        "in": "header",
                        "description": "Nhập vào Bearer [token]",
                        "required": true,
                        "type": "string"
                    }
                ],
                "responses": {
                    "200": {
                        "description": "Success"
                    }
                }
            }
        },
        "/api/Users/order": {
            "post": {
                "tags": [
                    "Users"
                ],
                "operationId": "Order",
                "consumes": [
                    "application/json-patch+json",
                    "application/json",
                    "text/json",
                    "application/*+json"
                ],
                "produces": [],
                "parameters": [
                    {
                        "name": "model",
                        "in": "body",
                        "required": false,
                        "schema": {
                            "$ref": "#/definitions/OrderViewModel"
                        }
                    }
                ],
                "responses": {
                    "200": {
                        "description": "Success"
                    }
                }
            }
        },
        "/api/Users/uploadavatar": {
            "post": {
                "tags": [
                    "Users"
                ],
                "operationId": "UploadAvatar",
                "consumes": [],
                "produces": [],
                "parameters": [],
                "responses": {
                    "200": {
                        "description": "Success"
                    }
                }
            }
        },
        "/api/Users/like": {
            "get": {
                "tags": [
                    "Users"
                ],
                "operationId": "like",
                "consumes": [],
                "produces": [],
                "parameters": [
                    {
                        "name": "productId",
                        "in": "query",
                        "required": false,
                        "type": "integer",
                        "format": "int32"
                    },
                    {
                        "name": "Authorization",
                        "in": "header",
                        "description": "Nhập vào Bearer [token]",
                        "required": true,
                        "type": "string"
                    }
                ],
                "responses": {
                    "200": {
                        "description": "Success"
                    }
                }
            }
        },
        "/api/Users/unlike": {
            "get": {
                "tags": [
                    "Users"
                ],
                "operationId": "unLike",
                "consumes": [],
                "produces": [],
                "parameters": [
                    {
                        "name": "productId",
                        "in": "query",
                        "required": false,
                        "type": "integer",
                        "format": "int32"
                    },
                    {
                        "name": "Authorization",
                        "in": "header",
                        "description": "Nhập vào Bearer [token]",
                        "required": true,
                        "type": "string"
                    }
                ],
                "responses": {
                    "200": {
                        "description": "Success"
                    }
                }
            }
        },
        "/api/Users/getproductfavorite": {
            "get": {
                "tags": [
                    "Users"
                ],
                "operationId": "getProductFavorite",
                "consumes": [],
                "produces": [],
                "parameters": [
                    {
                        "name": "Authorization",
                        "in": "header",
                        "description": "Nhập vào Bearer [token]",
                        "required": true,
                        "type": "string"
                    }
                ],
                "responses": {
                    "200": {
                        "description": "Success"
                    }
                }
            }
        }
    },
    "definitions": {
        "InfoUser": {
            "type": "object",
            "properties": {
                "email": {
                    "type": "string"
                },
                "password": {
                    "type": "string"
                },
                "name": {
                    "type": "string"
                },
                "gender": {
                    "type": "boolean"
                },
                "phone": {
                    "type": "string"
                }
            }
        },
        "UserLogin": {
            "type": "object",
            "properties": {
                "email": {
                    "type": "string"
                },
                "password": {
                    "type": "string"
                }
            }
        },
        "DangNhapFacebookViewModel": {
            "required": [
                "facebookToken"
            ],
            "type": "object",
            "properties": {
                "facebookToken": {
                    "type": "string"
                }
            }
        },
        "UserNewPassword": {
            "type": "object",
            "properties": {
                "newPassword": {
                    "type": "string"
                }
            }
        },
        "OrderDestroy": {
            "type": "object",
            "properties": {
                "orderId": {
                    "format": "int32",
                    "type": "integer"
                }
            }
        },
        "OrderViewModel": {
            "type": "object",
            "properties": {
                "orderDetail": {
                    "uniqueItems": false,
                    "type": "array",
                    "items": {
                        "$ref": "#/definitions/OrderDetail"
                    }
                },
                "email": {
                    "type": "string"
                }
            }
        },
        "OrderDetail": {
            "type": "object",
            "properties": {
                "productId": {
                    "type": "string"
                },
                "quantity": {
                    "format": "double",
                    "type": "number"
                }
            }
        }
    }
}